lab4
…
Part 2 1)

defCleanLong <- defClean %>% pivot_longer(Tackles_Solo:Pass_PB,
    names_to= 'Statistic', values_to="value")

defCleanLong

## # A tibble: 4,518 x 4
##    Name            Opponent_Opponent Statistic    value
##    <fct>           <fct>             <chr>        <dbl>
##  1 White, Lawrence UNI               Tackles_Solo     4
##  2 White, Lawrence UNI               Tackles_ASST     4
##  3 White, Lawrence UNI               Tackles_TFL      0
##  4 White, Lawrence UNI               Tackles_Sack     0
##  5 White, Lawrence UNI               Turnover_FF      0
##  6 White, Lawrence UNI               Turnover_FR      0
##  7 White, Lawrence UNI               Turnover_INT     0
##  8 White, Lawrence UNI               Pass_QBH         1
##  9 White, Lawrence UNI               Pass_PB          1
## 10 White, Lawrence Iowa              Tackles_Solo     4
## #  with 4,508 more rows
…
